{
    "sizes": [
        {
            "slug": "s-1vcpu-512mb-10gb",
            "memory": 512,
            "vcpus": 1,
            "disk": 10,
            "transfer": 0.5,
            "price_monthly": 4.0,
            "price_hourly": 0.00595,
            "regions": [
                "ams3",
                "fra1",
                "nyc1",
                "sfo3",
                "sgp1",
                "syd1"
            ],
            "available": true,
            "description": "Basic"
        },
        {
            "slug": "s-1vcpu-1gb",
            "memory": 1024,
            "vcpus": 1,
            "disk": 25,
            "transfer": 1.0,
            "price_monthly": 6.0,
            "price_hourly": 0.00893,
            "regions": [
                "ams3",
                "blr1",
                "fra1",
                "lon1",
                "nyc1",
                "nyc3",
                "sfo3",
                "sgp1",
                "syd1",
                "tor1"
            ],
            "available": true,
            "description": "Basic"
        },
        {
            "slug": "s-1vcpu-1gb-amd",
            "memory": 1024,
            "vcpus": 1,
            "disk": 25,
            "transfer": 1.0,
            "price_monthly": 7.0,
            "price_hourly": 0.01042,
            "regions": [
                "ams3",
                "blr1",
                "fra1",
                "lon1",
                "nyc1",
                "nyc3",
                "sfo3",
                "sgp1",
                "syd1",
                "tor1"
            ],
            "available": true,
            "description": "Basic AMD"
        },
        {
            "slug": "s-1vcpu-1gb-intel",
            "memory": 1024,
            "vcpus": 1,
            "disk": 25,
            "transfer": 1.0,
            "price_monthly": 7.0,
            "price_hourly": 0.01042,
            "regions": [
                "ams3",
                "blr1",
                "fra1",
                "lon1",
                "nyc1",
                "nyc3",
                "sfo3",
                "sgp1",
                "syd1",
                "tor1"
            ],
            "available": true,
            "description": "Basic Intel"
        },
        {
            "slug": "s-1vcpu-2gb",
            "memory": 2048,
            "vcpus": 1,
            "disk": 50,
            "transfer": 2.0,
            "price_monthly": 12.0,
            "price_hourly": 0.01786,
            "regions": [
                "ams3",
                "blr1",
                "fra1",
                "lon1",
                "nyc1",
                "nyc3",
                "sfo3",
                "sgp1",
                "syd1",
                "tor1"
            ],
            "available": true,
            "description": "Basic"
        },
        {
            "slug": "s-1vcpu-2gb-amd",
            "memory": 2048,
            "vcpus": 1,
            "disk": 50,
            "transfer": 2.0,
            "price_monthly": 14.0,
            "price_hourly": 0.02083,
            "regions": [
                "ams3",
                "blr1",
                "fra1",
                "lon1",
                "nyc1",
                "nyc3",
                "sfo3",
                "sgp1",
                "syd1",
                "tor1"
            ],
            "available": true,
            "description": "Basic AMD"
        },
        {
            "slug": "s-1vcpu-2gb-intel",
            "memory": 2048,
            "vcpus": 1,
            "disk": 50,
            "transfer": 2.0,
            "price_monthly": 14.0,
            "price_hourly": 0.02083,
            "regions": [
                "ams3",
                "blr1",
                "fra1",
                "lon1",
                "nyc1",
                "nyc3",
                "sfo3",
                "sgp1",
                "syd1",
                "tor1"
            ],
            "available": true,
            "description": "Basic Intel"
        },
        {
            "slug": "s-2vcpu-2gb",
            "memory": 2048,
            "vcpus": 2,
            "disk": 60,
            "transfer": 3.0,
            "price_monthly": 18.0,
            "price_hourly": 0.02679,
            "regions": [
                "ams3",
                "blr1",
                "fra1",
                "lon1",
                "nyc1",
                "nyc3",
                "sfo3",
                "sgp1",
                "syd1",
                "tor1"
            ],
            "available": true,
            "description": "Basic"
        },
        {
            "slug": "s-2vcpu-2gb-amd",
            "memory": 2048,
            "vcpus": 2,
            "disk": 60,
            "transfer": 3.0,
            "price_monthly": 21.0,
            "price_hourly": 0.03125,
            "regions": [
                "ams3",
                "blr1",
                "fra1",
                "lon1",
                "nyc1",
                "nyc3",
                "sfo3",
                "sgp1",
                "syd1",
                "tor1"
            ],
            "available": true,
            "description": "Basic AMD"
        },
        {
            "slug": "s-2vcpu-2gb-intel",
            "memory": 2048,
            "vcpus": 2,
            "disk": 60,
            "transfer": 3.0,
            "price_monthly": 21.0,
            "price_hourly": 0.03125,
            "regions": [
                "ams3",
                "blr1",
                "fra1",
                "lon1",
                "nyc1",
                "nyc3",
                "sfo3",
                "sgp1",
                "syd1",
                "tor1"
            ],
            "available": true,
            "description": "Basic Intel"
        },
        {
            "slug": "s-2vcpu-4gb",
            "memory": 4096,
            "vcpus": 2,
            "disk": 80,
            "transfer": 4.0,
            "price_monthly": 24.0,
            "price_hourly": 0.03571,
            "regions": [
                "ams3",
                "blr1",
                "fra1",
                "lon1",
                "nyc1",
                "nyc3",
                "sfo3",
                "sgp1",
                "syd1",
                "tor1"
            ],
            "available": true,
            "description": "Basic"
        },
        {
            "slug": "s-2vcpu-4gb-amd",
            "memory": 4096,
            "vcpus": 2,
            "disk": 80,
            "transfer": 4.0,
            "price_monthly": 28.0,
            "price_hourly": 0.04167,
            "regions": [
                "ams3",
                "blr1",
                "fra1",
                "lon1",
                "nyc1",
                "nyc3",
                "sfo3",
                "sgp1",
                "syd1",
                "tor1"
            ],
            "available": true,
            "description": "Basic AMD"
        },
        {
            "slug": "s-2vcpu-4gb-intel",
            "memory": 4096,
            "vcpus": 2,
            "disk": 80,
            "transfer": 4.0,
            "price_monthly": 28.0,
            "price_hourly": 0.04167,
            "regions": [
                "ams3",
                "blr1",
                "fra1",
                "lon1",
                "nyc1",
                "nyc3",
                "sfo3",
                "sgp1",
                "syd1",
                "tor1"
            ],
            "available": true,
            "description": "Basic Intel"
        },
        {
            "slug": "c-2",
            "memory": 4096,
            "vcpus": 2,
            "disk": 25,
            "transfer": 4.0,
            "price_monthly": 42.0,
            "price_hourly": 0.0625,
            "regions": [
                "ams3",
                "blr1",
                "fra1",
                "lon1",
                "nyc1",
                "nyc3",
                "sfo3",
                "sgp1",
                "syd1",
                "tor1"
            ],
            "available": true,
            "description": "CPU-Optimized"
        },
        {
            "slug": "c2-2vcpu-4gb",
            "memory": 4096,
            "vcpus": 2,
            "disk": 50,
            "transfer": 4.0,
            "price_monthly": 47.0,
            "price_hourly": 0.06994,
            "regions": [
                "ams3",
                "blr1",
                "fra1",
                "lon1",
                "nyc1",
                "nyc3",
                "sfo3",
                "sgp1",
                "syd1",
                "tor1"
            ],
            "available": true,
            "description": "CPU-Optimized 2x SSD"
        },
        {
            "slug": "s-4vcpu-8gb",
            "memory": 8192,
            "vcpus": 4,
            "disk": 160,
            "transfer": 5.0,
            "price_monthly": 48.0,
            "price_hourly": 0.07143,
            "regions": [
                "ams3",
                "blr1",
                "fra1",
                "lon1",
                "nyc1",
                "nyc3",
                "sfo3",
                "sgp1",
                "syd1",
                "tor1"
            ],
            "available": true,
            "description": "Basic"
        },
        {
            "slug": "s-4vcpu-8gb-amd",
            "memory": 8192,
            "vcpus": 4,
            "disk": 160,
            "transfer": 5.0,
            "price_monthly": 56.0,
            "price_hourly": 0.08333,
            "regions": [
                "ams3",
                "blr1",
                "fra1",
                "lon1",
                "nyc1",
                "nyc3",
                "sfo3",
                "sgp1",
                "syd1",
                "tor1"
            ],
            "available": true,
            "description": "Basic AMD"
        },
        {
            "slug": "s-4vcpu-8gb-intel",
            "memory": 8192,
            "vcpus": 4,
            "disk": 160,
            "transfer": 5.0,
            "price_monthly": 56.0,
            "price_hourly": 0.08333,
            "regions": [
                "ams3",
                "blr1",
                "fra1",
                "lon1",
                "nyc1",
                "nyc3",
                "sfo3",
                "sgp1",
                "syd1",
                "tor1"
            ],
            "available": true,
            "description": "Basic Intel"
        },
        {
            "slug": "g-2vcpu-8gb",
            "memory": 8192,
            "vcpus": 2,
            "disk": 25,
            "transfer": 4.0,
            "price_monthly": 63.0,
            "price_hourly": 0.09375,
            "regions": [
                "ams3",
                "blr1",
                "fra1",
                "lon1",
                "nyc1",
                "nyc3",
                "sfo3",
                "sgp1",
                "syd1",
                "tor1"
            ],
            "available": true,
            "description": "General Purpose"
        },
        {
            "slug": "gd-2vcpu-8gb",
            "memory": 8192,
            "vcpus": 2,
            "disk": 50,
            "transfer": 4.0,
            "price_monthly": 68.0,
            "price_hourly": 0.10119,
            "regions": [
                "ams3",
                "blr1",
                "fra1",
                "lon1",
                "nyc1",
                "nyc3",
                "sfo3",
                "sgp1",
                "syd1",
                "tor1"
            ],
            "available": true,
            "description": "General Purpose 2x SSD"
        }
    ],
    "links": {
        "pages": {
            "next": "https://api.digitalocean.com/v2/sizes?page=2&per_page=20",
            "last": "https://api.digitalocean.com/v2/sizes?page=4&per_page=20"
        }
    },
    "meta": {
        "total": 73
    }
}
